^C:\USERS\HOME\DESKTOP\ПРОЕКТЫ\3 СЕМЕСТР\LAB4\LAB4\PCH.CPP
/c /ZI /JMC /nologo /W3 /WX- /diagnostics:classic /sdl /Od /Oy- /D WIN32 /D _DEBUG /D _CONSOLE /D _UNICODE /D UNICODE /Gm- /EHsc /RTC1 /MDd /GS /fp:precise /permissive- /Zc:wchar_t /Zc:forScope /Zc:inline /Yc"pch.h" /Fp"DEBUG\LAB4.PCH" /Fo"DEBUG\\" /Fd"DEBUG\VC141.PDB" /Gd /TP /analyze- /FC C:\USERS\HOME\DESKTOP\ПРОЕКТЫ\3 СЕМЕСТР\LAB4\LAB4\PCH.CPP
^C:\USERS\HOME\DESKTOP\ПРОЕКТЫ\3 СЕМЕСТР\LAB4\LAB4\BUFFERLIST.CPP
/c /ZI /JMC /nologo /W3 /WX- /diagnostics:classic /sdl /Od /Oy- /D WIN32 /D _DEBUG /D _CONSOLE /D _UNICODE /D UNICODE /Gm- /EHsc /RTC1 /MDd /GS /fp:precise /permissive- /Zc:wchar_t /Zc:forScope /Zc:inline /Yu"pch.h" /Fp"DEBUG\LAB4.PCH" /Fo"DEBUG\\" /Fd"DEBUG\VC141.PDB" /Gd /TP /analyze- /FC C:\USERS\HOME\DESKTOP\ПРОЕКТЫ\3 СЕМЕСТР\LAB4\LAB4\BUFFERLIST.CPP
^C:\USERS\HOME\DESKTOP\ПРОЕКТЫ\3 СЕМЕСТР\LAB4\LAB4\LAB4.CPP
/c /ZI /JMC /nologo /W3 /WX- /diagnostics:classic /sdl /Od /Oy- /D WIN32 /D _DEBUG /D _CONSOLE /D _UNICODE /D UNICODE /Gm- /EHsc /RTC1 /MDd /GS /fp:precise /permissive- /Zc:wchar_t /Zc:forScope /Zc:inline /Yu"pch.h" /Fp"DEBUG\LAB4.PCH" /Fo"DEBUG\\" /Fd"DEBUG\VC141.PDB" /Gd /TP /analyze- /FC C:\USERS\HOME\DESKTOP\ПРОЕКТЫ\3 СЕМЕСТР\LAB4\LAB4\LAB4.CPP
