^C:\USERS\HOME\DESKTOP\ПРОЕКТЫ\3 СЕМЕСТР\LAB5\LAB5\PCH.CPP
C:\USERS\HOME\DESKTOP\Проекты\3 семестр\LAB5\LAB5\DEBUG\LAB5.PCH
C:\USERS\HOME\DESKTOP\Проекты\3 семестр\LAB5\LAB5\DEBUG\VC141.PDB
C:\USERS\HOME\DESKTOP\Проекты\3 семестр\LAB5\LAB5\DEBUG\VC141.IDB
C:\USERS\HOME\DESKTOP\Проекты\3 семестр\LAB5\LAB5\DEBUG\PCH.OBJ
^C:\USERS\HOME\DESKTOP\ПРОЕКТЫ\3 СЕМЕСТР\LAB5\LAB5\HASHTABLE.CPP|C:\USERS\HOME\DESKTOP\ПРОЕКТЫ\3 СЕМЕСТР\LAB5\LAB5\LAB5.CPP
C:\USERS\HOME\DESKTOP\Проекты\3 семестр\LAB5\LAB5\DEBUG\VC141.PDB
C:\USERS\HOME\DESKTOP\Проекты\3 семестр\LAB5\LAB5\DEBUG\VC141.IDB
C:\USERS\HOME\DESKTOP\Проекты\3 семестр\LAB5\LAB5\DEBUG\LAB5.OBJ
C:\USERS\HOME\DESKTOP\Проекты\3 семестр\LAB5\LAB5\DEBUG\HASHTABLE.OBJ
^C:\USERS\HOME\DESKTOP\ПРОЕКТЫ\3 СЕМЕСТР\LAB5\LAB5\HASHTABLE.CPP
C:\USERS\HOME\DESKTOP\ПРОЕКТЫ\3 СЕМЕСТР\LAB5\LAB5\DEBUG\VC141.PDB
^C:\USERS\HOME\DESKTOP\ПРОЕКТЫ\3 СЕМЕСТР\LAB5\LAB5\LAB5.CPP
C:\USERS\HOME\DESKTOP\Проекты\3 семестр\LAB5\LAB5\DEBUG\VC141.PDB
C:\USERS\HOME\DESKTOP\Проекты\3 семестр\LAB5\LAB5\DEBUG\VC141.IDB
C:\USERS\HOME\DESKTOP\Проекты\3 семестр\LAB5\LAB5\DEBUG\LAB5.OBJ
