^C:\USERS\HOME\DESKTOP\ПРОЕКТЫ\3 СЕМЕСТР\LAB6\LAB6\DEBUG\BINARYTREE.OBJ|C:\USERS\HOME\DESKTOP\ПРОЕКТЫ\3 СЕМЕСТР\LAB6\LAB6\DEBUG\LAB6.OBJ|C:\USERS\HOME\DESKTOP\ПРОЕКТЫ\3 СЕМЕСТР\LAB6\LAB6\DEBUG\PCH.OBJ
C:\USERS\HOME\DESKTOP\Проекты\3 семестр\LAB6\DEBUG\LAB6.EXE
C:\USERS\HOME\DESKTOP\Проекты\3 семестр\LAB6\DEBUG\LAB6.ILK
C:\USERS\HOME\DESKTOP\ПРОЕКТЫ\3 СЕМЕСТР\LAB6\DEBUG\LAB6.PDB
